…
police_ratios <- tidy_police %>%
  count(word, Party) %>%
  group_by(word) %>%
  filter(sum(n) >= 10) %>%     #We evaluate words only used more than 10 times.
  ungroup() %>%
  spread(Party, n, fill = 0) %>%
  mutate_if(is.numeric, list(~(. + 1) / (sum(.) + 1))) %>%
  mutate(logratio = log(D / R)) %>%
  arrange(desc(logratio))

police_ratios %>% 
  arrange(abs(logratio))

## # A tibble: 309 x 4
##    word             D       R logratio
##    <chr>        <dbl>   <dbl>    <dbl>
##  1 voted      0.00149 0.00150 -0.00963
##  2 reforms    0.00512 0.00525 -0.0256 
##  3 violence   0.00628 0.00650 -0.0356 
##  4 abuse      0.00182 0.00175  0.0369 
##  5 introduced 0.00182 0.00175  0.0369 
##  6 protests   0.00182 0.00175  0.0369 
##  7 america    0.00495 0.00475  0.0417 
##  8 vote       0.00314 0.00300  0.0444 
##  9 african    0.00132 0.00125  0.0549 
## 10 death      0.00330 0.00350 -0.0584 
## # … with 299 more rows
…
